int 1
mov [9],a
mov [10],b
mov [11],[9]
jgt 18,[9],[12]
mov a,[12]
sub a,[9]
mov b,[9]
sub b,a
jgt 30,b,[9]
mov [11],b
sub b,a
jgt 30,b,[9]
mov [11],b
sub b,a
jgt 30,b,[9]
mov [11],b
mov pc,30
mov a,[9]
sub a,[12]
mov b,[9]
add b,a
jlt 30,b,[9]
mov [11],b
add b,a
jlt 30,b,[9]
mov [11],b
add b,a
jlt 30,b,[9]
mov [11],b
mov [13],[10]
jgt 45,[10],[14]
mov a,[14]
sub a,[10]
mov b,[10]
sub b,a
jgt 57,b,[10]
mov [13],b
sub b,a
jgt 57,b,[10]
mov [13],b
sub b,a
jgt 57,b,[10]
mov [13],b
mov pc,57
mov a,[10]
sub a,[14]
mov b,[10]
add b,a
jlt 57,b,[10]
mov [13],b
add b,a
jlt 57,b,[10]
mov [13],b
add b,a
jlt 57,b,[10]
mov [13],b
int 3
int 5
mov [15],a
mov [16],b
int 3
int 6
mov [17],a
mov [18],b
mov [19],[15]
add [19],1
mov [20],[15]
sub [20],1
mov [21],[16]
add [21],1
mov [22],[16]
sub [22],1
mov [23],0
mov a,[19]
mov b,[16]
int 7
mov [24],a
jeq 80,a,0
inc [23]
mov a,[20]
mov b,[16]
int 7
mov [25],a
jeq 86,a,0
inc [23]
mov a,[15]
mov b,[21]
int 7
mov [26],a
jeq 92,a,0
inc [23]
mov a,[15]
mov b,[22]
int 7
mov [27],a
jeq 98,a,0
inc [23]
jgt 100,[23],2
mov pc,150
jeq 109,[17],0
mov a,[15]
sub a,[9]
add a,[15]
mov [11],a
mov a,[16]
sub a,[10]
add a,[16]
mov [13],a
mov [28],111
jlt 145,[16],[13]
mov [28],113
jgt 141,[15],[13]
mov [28],115
jlt 133,[15],[11]
mov [28],117
jgt 137,[15],[11]
mov a,134
mov [28],121
jgt 137,[18],3
jlt 137,[18],3
mov [28],124
jgt 133,[18],1
jlt 133,[18],1
mov [28],127
jgt 145,[18],2
jlt 145,[18],2
mov [28],130
jgt 141,[18],0
jlt 141,[18],0
mov pc,150
mov pc,[28]
mov pc,150
jeq 131,[24],0
jeq 131,[18],3
mov a,1
mov pc,149
jeq 131,[25],0
jeq 131,[18],1
mov a,3
mov pc,149
jeq 131,[27],0
jeq 131,[18],2
mov a,0
mov pc,149
jeq 131,[26],0
jeq 131,[18],0
mov a,2
mov pc,149
int 0
mov [12],[9]
mov [14],[10]
hlt